432306
530861
730345
769195
637134
74074
41023
904874
961184
82608
64482
557331
485191
126911
332000
658540
989378
471090
930746
1346269
199757
153354
47129
259298
871153
815761
36729
442635
554361
769412
987730
779125
658804
832040
822514
904898
496729
846507
543179
5702887
37433
989710
661568
400177
273810
113980
498706
400099
990428
302218
122158
420521
289203
644434
880998
430354
139696
607698
467889
915439
988066
753558
234820
277126
364648
244299
107545
645689
633647
720400
177082
604913
475886
523488
683808
795455
284627
810655
921442
511615
939384
267712
390039
681413
949605
680309
644525
398880
305498
850844
300535
785654
800815
246032
78229
18097
976669
842766
254707
152682
842452
950320
852067
203018
299428
741740
362479
692493
929690
832922
799145
854526
461639
723509
155699
730160
960016
505968
988376
713779
726314
305900
146054
863024
168884
433925
561158
55091
16991
364421
1193
638070
720162
790955
227544
789531
936271
492031
590088
424973
670559
487379
137181
315926
773011
46423
640116
385458
319936
796715
744836
943769
567244
409302
377881
509117
617728
14995
313908
774118
564085
178882
138564
753096
274535
691406
923226
61841
321879
113612
959756
249233
237160
300596
132732
445400
164938
561345
249563
26284
875307
500119
828103
929038
467684
935079
236892
731
393233
153458
290899
161786
30332
671619
246525
899704
641293
619219
481149
546705
475784
592424
141261
354563
343066
699862
736439
967998
725520
910960
28489
466099
588586
575691
966035
732765
479527
570460
990108
334541
992101
828366
314229
150532
714681
14695
798276
205573
549688
26037
850909
838790
355214
670407
450862
918141
661738
740393
886164
131259
883683
843936
65767
556918
187824
237016
768593
789311
176349
153833
857771
273151
243036
43690
948076
237131
394398
22651
530068
253425
962625
810086
645150
890018
525274
588973
388113
297079
241246
422714
930262
591391
923127
983224
964822
854136
933613
683318
704993
297623
63912
362815
775562
686663
898325
73333
278608
370852
179106
213242
900759
362947
203878
71028
253225
250132
688272
438725
767338
582666
179173
228699
940111
762707
14317
885799
870199
717250
405325
734411
855782
741039
749191
607267
856481
136791
248787
161853
61415
814739
444102
840000
17509
770341
632170
295464
148383
983668
908719
738812
588268
480031
736300
816758
836328
480319
607495
375699
577067
242382
434956
125225
53898
984723
203613
687082
749749
120738
831722
854279
529766
309448
954631
892454
900099
589735
749980
320372
894891
119953
431075
575965
247420
504811
447487
62406
144336
62838
862965
801111
110281
346285
106971
750475
568022
180779
735921
192269
775071
340611
601410
428213
101969
207163
123214
966719
204516
254853
135695
290284
74769
645704
374458
829374
57009
327607
36372
466159
394543
924181
53347
734141
62555
658508
624158
881382
745561
802070
875757
717371
790260
439052
226347
901247
680205
644621
352798
602987
573531
912008
411498
885393
560749
527839
432208
826974
762886
308898
490690
940535
990103
792893
59544
138590
375653
373320
815798
375095
515625
490939
678617
871726
662614
44133
323011
726113
922408
842597
315488
394605
648621
738600
438198
504783
355309
586291
506952
83699
722269
504397
530255
423446
86954
234420
120677
228037
110832
352458
785719
9278
959585
666175
704175
670114
796663
577695
682848
51466
685343
67794
49192
641237
480482
772904
805415
273195
296989
266893
820673
833554
303226
11032
508752
249762
141876
83948
256307
540951
799463
804347
100447
